time,x,y,z,
0.0000000000e+00,0,0.0000000000e+00,0,
1.0000000000e-01,1,1.0000000000e+00,-2,
2.0000000000e-01,2,4.0000000000e+00,-4,
3.0000000000e-01,3,9.0000000000e+00,-6,
4.0000000000e-01,4,1.6000000000e+01,-8,
5.0000000000e-01,5,2.5000000000e+01,-10,
6.0000000000e-01,6,3.6000000000e+01,-12,
7.0000000000e-01,7,4.9000000000e+01,-14,
8.0000000000e-01,8,6.4000000000e+01,-16,
9.0000000000e-01,9,8.1000000000e+01,-18,
1.0000000000e+00,10,1.0000000000e+02,-20,
1.1000000000e+00,11,1.2100000000e+02,-22,
1.2000000000e+00,12,1.4400000000e+02,-24,
1.3000000000e+00,13,1.6900000000e+02,-26,
1.4000000000e+00,14,1.9600000000e+02,-28,
1.5000000000e+00,15,2.2500000000e+02,-30,
1.6000000000e+00,16,2.5600000000e+02,-32,
1.7000000000e+00,17,2.8900000000e+02,-34,
1.8000000000e+00,18,3.2400000000e+02,-36,
1.9000000000e+00,19,3.6100000000e+02,-38,
2.0000000000e+00,20,4.0000000000e+02,-40,
2.1000000000e+00,21,4.4100000000e+02,-42,
2.2000000000e+00,22,4.8400000000e+02,-44,
2.3000000000e+00,23,5.2900000000e+02,-46,
2.4000000000e+00,24,5.7600000000e+02,-48,
2.5000000000e+00,25,6.2500000000e+02,-50,
2.6000000000e+00,26,6.7600000000e+02,-52,
2.7000000000e+00,27,7.2900000000e+02,-54,
2.8000000000e+00,28,7.8400000000e+02,-56,
2.9000000000e+00,29,8.4100000000e+02,-58,
3.0000000000e+00,30,9.0000000000e+02,-60,
3.1000000000e+00,31,9.6100000000e+02,-62,
3.2000000000e+00,32,1.0240000000e+03,-64,
3.3000000000e+00,33,1.0890000000e+03,-66,
3.4000000000e+00,34,1.1560000000e+03,-68,
3.5000000000e+00,35,1.2250000000e+03,-70,
3.6000000000e+00,36,1.2960000000e+03,-72,
3.7000000000e+00,37,1.3690000000e+03,-74,
3.8000000000e+00,38,1.4440000000e+03,-76,
3.9000000000e+00,39,1.5210000000e+03,-78,
4.0000000000e+00,40,1.6000000000e+03,-80,
4.1000000000e+00,41,1.6810000000e+03,-82,
4.2000000000e+00,42,1.7640000000e+03,-84,
4.3000000000e+00,43,1.8490000000e+03,-86,
4.4000000000e+00,44,1.9360000000e+03,-88,
4.5000000000e+00,45,2.0250000000e+03,-90,
4.6000000000e+00,46,2.1160000000e+03,-92,
4.7000000000e+00,47,2.2090000000e+03,-94,
4.8000000000e+00,48,2.3040000000e+03,-96,
4.9000000000e+00,49,2.4010000000e+03,-98,
5.0000000000e+00,50,2.5000000000e+03,-100,
5.1000000000e+00,51,2.6010000000e+03,-102,
5.2000000000e+00,52,2.7040000000e+03,-104,
5.3000000000e+00,53,2.8090000000e+03,-106,
5.4000000000e+00,54,2.9160000000e+03,-108,
5.5000000000e+00,55,3.0250000000e+03,-110,
5.6000000000e+00,56,3.1360000000e+03,-112,
5.7000000000e+00,57,3.2490000000e+03,-114,
5.8000000000e+00,58,3.3640000000e+03,-116,
5.9000000000e+00,59,3.4810000000e+03,-118,
6.0000000000e+00,60,3.6000000000e+03,-120,
6.1000000000e+00,61,3.7210000000e+03,-122,
6.2000000000e+00,62,3.8440000000e+03,-124,
6.3000000000e+00,63,3.9690000000e+03,-126,
6.4000000000e+00,64,4.0960000000e+03,-128,
6.5000000000e+00,65,4.2250000000e+03,-130,
6.6000000000e+00,66,4.3560000000e+03,-132,
6.7000000000e+00,67,4.4890000000e+03,-134,
6.8000000000e+00,68,4.6240000000e+03,-136,
6.9000000000e+00,69,4.7610000000e+03,-138,
7.0000000000e+00,70,4.9000000000e+03,-140,
7.1000000000e+00,71,5.0410000000e+03,-142,
7.2000000000e+00,72,5.1840000000e+03,-144,
7.3000000000e+00,73,5.3290000000e+03,-146,
7.4000000000e+00,74,5.4760000000e+03,-148,
7.5000000000e+00,75,5.6250000000e+03,-150,
7.6000000000e+00,76,5.7760000000e+03,-152,
7.7000000000e+00,77,5.9290000000e+03,-154,
7.8000000000e+00,78,6.0840000000e+03,-156,
7.9000000000e+00,79,6.2410000000e+03,-158,
8.0000000000e+00,80,6.4000000000e+03,-160,
8.1000000000e+00,81,6.5610000000e+03,-162,
8.2000000000e+00,82,6.7240000000e+03,-164,
8.3000000000e+00,83,6.8890000000e+03,-166,
8.4000000000e+00,84,7.0560000000e+03,-168,
8.5000000000e+00,85,7.2250000000e+03,-170,
8.6000000000e+00,86,7.3960000000e+03,-172,
8.7000000000e+00,87,7.5690000000e+03,-174,
8.8000000000e+00,88,7.7440000000e+03,-176,
8.9000000000e+00,89,7.9210000000e+03,-178,
9.0000000000e+00,90,8.1000000000e+03,-180,
9.1000000000e+00,91,8.2810000000e+03,-182,
9.2000000000e+00,92,8.4640000000e+03,-184,
9.3000000000e+00,93,8.6490000000e+03,-186,
9.4000000000e+00,94,8.8360000000e+03,-188,
9.5000000000e+00,95,9.0250000000e+03,-190,
9.6000000000e+00,96,9.2160000000e+03,-192,
9.7000000000e+00,97,9.4090000000e+03,-194,
9.8000000000e+00,98,9.6040000000e+03,-196,
9.9000000000e+00,99,9.8010000000e+03,-198,
1.0000000000e+01,100,1.0000000000e+04,-200,
